[    0.000000] Linux version 4.7.2_1 (xbps-builder@build.voidlinux.eu) (gcc version 4.9.4 (GCC) ) #1 SMP PREEMPT Sun Aug 21 01:46:40 UTC 2016
[    0.000000] Command line: BOOT_IMAGE=(hd0)/boot/vmlinuz root=live:CDLABEL=VOID_LIVE ro init=/sbin/init rd.luks=0 rd.md=0 rd.dm=0 loglevel=4 gpt add_efi_memmap vconsole.unicode=1 vconsole.keymap=us locale.LANG=en_US.UTF-8 loglevel=6 printk.time=1 consoleblank=0 net.ifnames=0
[    0.000000] x86/fpu: xstate_offset[2]:  576, xstate_sizes[2]:  256
[    0.000000] x86/fpu: xstate_offset[3]:  960, xstate_sizes[3]:   64
[    0.000000] x86/fpu: xstate_offset[4]: 1024, xstate_sizes[4]:   64
[    0.000000] x86/fpu: Supporting XSAVE feature 0x001: 'x87 floating point registers'
[    0.000000] x86/fpu: Supporting XSAVE feature 0x002: 'SSE registers'
[    0.000000] x86/fpu: Supporting XSAVE feature 0x004: 'AVX registers'
[    0.000000] x86/fpu: Supporting XSAVE feature 0x008: 'MPX bounds registers'
[    0.000000] x86/fpu: Supporting XSAVE feature 0x010: 'MPX CSR'
[    0.000000] x86/fpu: Enabled xstate features 0x1f, context size is 1088 bytes, using 'standard' format.
[    0.000000] x86/fpu: Using 'eager' FPU context switches.
[    0.000000] e820: BIOS-provided physical RAM map:
[    0.000000] BIOS-e820: [mem 0x0000000000000000-0x0000000000057fff] usable
[    0.000000] BIOS-e820: [mem 0x0000000000058000-0x0000000000058fff] reserved
[    0.000000] BIOS-e820: [mem 0x0000000000059000-0x000000000009dfff] usable
[    0.000000] BIOS-e820: [mem 0x000000000009e000-0x000000000009efff] reserved
[    0.000000] BIOS-e820: [mem 0x000000000009f000-0x000000000009ffff] usable
[    0.000000] BIOS-e820: [mem 0x00000000000a0000-0x00000000000fffff] reserved
[    0.000000] BIOS-e820: [mem 0x0000000000100000-0x00000000c70fafff] usable
[    0.000000] BIOS-e820: [mem 0x00000000c70fb000-0x00000000c75fafff] type 20
[    0.000000] BIOS-e820: [mem 0x00000000c75fb000-0x00000000c7c7efff] reserved
[    0.000000] BIOS-e820: [mem 0x00000000c7c7f000-0x00000000c7e7efff] ACPI NVS
[    0.000000] BIOS-e820: [mem 0x00000000c7e7f000-0x00000000c7efefff] ACPI data
[    0.000000] BIOS-e820: [mem 0x00000000c7eff000-0x00000000c7efffff] usable
[    0.000000] BIOS-e820: [mem 0x00000000c7f00000-0x00000000cc7fffff] reserved
[    0.000000] BIOS-e820: [mem 0x00000000f80fa000-0x00000000f80fafff] reserved
[    0.000000] BIOS-e820: [mem 0x00000000f80fd000-0x00000000f80fdfff] reserved
[    0.000000] BIOS-e820: [mem 0x00000000fe000000-0x00000000fe010fff] reserved
[    0.000000] BIOS-e820: [mem 0x0000000100000000-0x00000008317fffff] usable
[    0.000000] NX (Execute Disable) protection: active
[    0.000000] efi: EFI v2.40 by HP
[    0.000000] efi:  ACPI=0xc7efe000  ACPI 2.0=0xc7efe014  SMBIOS=0xc78db000  MPS=0xc796c000  ESRT=0xc7073660 
[    0.000000] efi: requested map not found.
[    0.000000] esrt: ESRT header is not in the memory map.
[    0.000000] SMBIOS 2.7 present.
[    0.000000] DMI: HP HP EliteBook 840 G3/8079, BIOS N75 Ver. 01.10 07/31/2016
[    0.000000] e820: update [mem 0x00000000-0x00000fff] usable ==> reserved
[    0.000000] e820: remove [mem 0x000a0000-0x000fffff] usable
[    0.000000] e820: last_pfn = 0x831800 max_arch_pfn = 0x400000000
[    0.000000] MTRR default type: write-back
[    0.000000] MTRR fixed ranges enabled:
[    0.000000]   00000-9FFFF write-back
[    0.000000]   A0000-BFFFF uncachable
[    0.000000]   C0000-FFFFF write-protect
[    0.000000] MTRR variable ranges enabled:
[    0.000000]   0 base 00E0000000 mask 7FE0000000 uncachable
[    0.000000]   1 base 00D0000000 mask 7FF0000000 uncachable
[    0.000000]   2 base 00CC000000 mask 7FFC000000 uncachable
[    0.000000]   3 base 00CA000000 mask 7FFE000000 uncachable
[    0.000000]   4 disabled
[    0.000000]   5 disabled
[    0.000000]   6 disabled
[    0.000000]   7 disabled
[    0.000000]   8 disabled
[    0.000000]   9 disabled
[    0.000000] x86/PAT: Configuration [0-7]: WB  WC  UC- UC  WB  WC  UC- WT  
[    0.000000] e820: last_pfn = 0xc7f00 max_arch_pfn = 0x400000000
[    0.000000] Scanning 1 areas for low memory corruption
[    0.000000] Base memory trampoline at [ffff880000097000] 97000 size 24576
[    0.000000] Using GB pages for direct mapping
[    0.000000] BRK [0x02d8c000, 0x02d8cfff] PGTABLE
[    0.000000] BRK [0x02d8d000, 0x02d8dfff] PGTABLE
[    0.000000] BRK [0x02d8e000, 0x02d8efff] PGTABLE
[    0.000000] BRK [0x02d8f000, 0x02d8ffff] PGTABLE
[    0.000000] BRK [0x02d90000, 0x02d90fff] PGTABLE
[    0.000000] RAMDISK: [mem 0x34225000-0x36109fff]
[    0.000000] ACPI: Early table checksum verification disabled
[    0.000000] ACPI: RSDP 0x00000000C7EFE014 000024 (v02 HPQOEM)
[    0.000000] ACPI: XSDT 0x00000000C7EFD0E8 0000C4 (v01 HPQOEM SLIC-BPC 00000000      01000013)
[    0.000000] ACPI: FACP 0x00000000C7EF1000 0000F4 (v05 HPQOEM SLIC-BPC 00000000 HP   00000001)
[    0.000000] ACPI: DSDT 0x00000000C7EC8000 025F16 (v02 HPQOEM 8079     00000000 INTL 20121018)
[    0.000000] ACPI: FACS 0x00000000C7E6B000 000040
[    0.000000] ACPI: SSDT 0x00000000C7EFC000 000108 (v02 HP     ShmTable 00000001 INTL 20121018)
[    0.000000] ACPI: TCPA 0x00000000C7EFA000 000032 (v02 HPQOEM EDK2     00000002      01000013)
[    0.000000] ACPI: SSDT 0x00000000C7EF9000 0003B8 (v02 HPQOEM TcgTable 00001000 INTL 20121018)
[    0.000000] ACPI: UEFI 0x00000000C7E7A000 000042 (v01 HPQOEM EDK2     00000002      01000013)
[    0.000000] ACPI: SSDT 0x00000000C7EF3000 0051FA (v02 SaSsdt SaSsdt   00003000 INTL 20121018)
[    0.000000] ACPI: SSDT 0x00000000C7EF2000 0005B1 (v01 Intel  PerfTune 00001000 INTL 20121018)
[    0.000000] ACPI: HPET 0x00000000C7EF0000 000038 (v01 HPQOEM 8079     00000001 HP   00000001)
[    0.000000] ACPI: APIC 0x00000000C7EEF000 0000BC (v01 HPQOEM 8079     00000001 HP   00000001)
[    0.000000] ACPI: MCFG 0x00000000C7EEE000 00003C (v01 HPQOEM 8079     00000001 HP   00000001)
[    0.000000] ACPI: SSDT 0x00000000C7EC7000 00019A (v02 HPQOEM Sata0Ide 00001000 INTL 20121018)
[    0.000000] ACPI: SSDT 0x00000000C7EC6000 000729 (v01 HPQOEM PtidDevc 00001000 INTL 20121018)
[    0.000000] ACPI: SSDT 0x00000000C7EC5000 0003DC (v02 HPQOEM SDS_RTD3 00001000 INTL 20121018)
[    0.000000] ACPI: SSDT 0x00000000C7EC4000 000E73 (v02 CpuRef CpuSsdt  00003000 INTL 20121018)
[    0.000000] ACPI: SSDT 0x00000000C7EC2000 001B5C (v01 HP     LAPTOPPC 00001000 INTL 20121018)
[    0.000000] ACPI: NHLT 0x00000000C7EC1000 00002D (v00 INTEL  EDK2     00000002      01000013)
[    0.000000] ACPI: ASF! 0x00000000C7EC0000 0000A5 (v32 HPQOEM  UYA     00000001 TFSM 000F4240)
[    0.000000] ACPI: FPDT 0x00000000C7EBF000 000044 (v01 HPQOEM EDK2     00000002      01000013)
[    0.000000] ACPI: BGRT 0x00000000C7EBE000 000038 (v01 HPQOEM EDK2     00000002      01000013)
[    0.000000] ACPI: SSDT 0x00000000C7EFB000 000260 (v02 HP     PwrCtlEv 00000001 INTL 20121018)
[    0.000000] ACPI: Local APIC address 0xfee00000
[    0.000000] No NUMA configuration found
[    0.000000] Faking a node at [mem 0x0000000000000000-0x00000008317fffff]
[    0.000000] NODE_DATA(0) allocated [mem 0x8317f9000-0x8317fdfff]
[    0.000000] Zone ranges:
[    0.000000]   DMA      [mem 0x0000000000001000-0x0000000000ffffff]
[    0.000000]   DMA32    [mem 0x0000000001000000-0x00000000ffffffff]
[    0.000000]   Normal   [mem 0x0000000100000000-0x00000008317fffff]
[    0.000000]   Device   empty
[    0.000000] Movable zone start for each node
[    0.000000] Early memory node ranges
[    0.000000]   node   0: [mem 0x0000000000001000-0x0000000000057fff]
[    0.000000]   node   0: [mem 0x0000000000059000-0x000000000009dfff]
[    0.000000]   node   0: [mem 0x000000000009f000-0x000000000009ffff]
[    0.000000]   node   0: [mem 0x0000000000100000-0x00000000c70fafff]
[    0.000000]   node   0: [mem 0x00000000c7eff000-0x00000000c7efffff]
[    0.000000]   node   0: [mem 0x0000000100000000-0x00000008317fffff]
[    0.000000] Initmem setup node 0 [mem 0x0000000000001000-0x00000008317fffff]
[    0.000000] On node 0 totalpages: 8358041
[    0.000000]   DMA zone: 64 pages used for memmap
[    0.000000]   DMA zone: 89 pages reserved
[    0.000000]   DMA zone: 3997 pages, LIFO batch:0
[    0.000000]   DMA32 zone: 12676 pages used for memmap
[    0.000000]   DMA32 zone: 811260 pages, LIFO batch:31
[    0.000000]   Normal zone: 117856 pages used for memmap
[    0.000000]   Normal zone: 7542784 pages, LIFO batch:31
[    0.000000] Reserving Intel graphics stolen memory at 0xca800000-0xcc7fffff
[    0.000000] ACPI: PM-Timer IO Port: 0x1808
[    0.000000] ACPI: Local APIC address 0xfee00000
[    0.000000] ACPI: LAPIC_NMI (acpi_id[0x01] high edge lint[0x1])
[    0.000000] ACPI: LAPIC_NMI (acpi_id[0x02] high edge lint[0x1])
[    0.000000] ACPI: LAPIC_NMI (acpi_id[0x03] high edge lint[0x1])
[    0.000000] ACPI: LAPIC_NMI (acpi_id[0x04] high edge lint[0x1])
[    0.000000] ACPI: LAPIC_NMI (acpi_id[0x05] high edge lint[0x1])
[    0.000000] ACPI: LAPIC_NMI (acpi_id[0x06] high edge lint[0x1])
[    0.000000] ACPI: LAPIC_NMI (acpi_id[0x07] high edge lint[0x1])
[    0.000000] ACPI: LAPIC_NMI (acpi_id[0x08] high edge lint[0x1])
[    0.000000] IOAPIC[0]: apic_id 2, version 32, address 0xfec00000, GSI 0-119
[    0.000000] ACPI: INT_SRC_OVR (bus 0 bus_irq 0 global_irq 2 dfl dfl)
[    0.000000] ACPI: INT_SRC_OVR (bus 0 bus_irq 9 global_irq 9 high level)
[    0.000000] ACPI: IRQ0 used by override.
[    0.000000] ACPI: IRQ9 used by override.
[    0.000000] Using ACPI (MADT) for SMP configuration information
[    0.000000] ACPI: HPET id: 0x8086a201 base: 0xfed00000
[    0.000000] smpboot: Allowing 8 CPUs, 4 hotplug CPUs
[    0.000000] PM: Registered nosave memory: [mem 0x00000000-0x00000fff]
[    0.000000] PM: Registered nosave memory: [mem 0x00058000-0x00058fff]
[    0.000000] PM: Registered nosave memory: [mem 0x0009e000-0x0009efff]
[    0.000000] PM: Registered nosave memory: [mem 0x000a0000-0x000fffff]
[    0.000000] PM: Registered nosave memory: [mem 0xc70fb000-0xc75fafff]
[    0.000000] PM: Registered nosave memory: [mem 0xc75fb000-0xc7c7efff]
[    0.000000] PM: Registered nosave memory: [mem 0xc7c7f000-0xc7e7efff]
[    0.000000] PM: Registered nosave memory: [mem 0xc7e7f000-0xc7efefff]
[    0.000000] PM: Registered nosave memory: [mem 0xc7f00000-0xcc7fffff]
[    0.000000] PM: Registered nosave memory: [mem 0xcc800000-0xf80f9fff]
[    0.000000] PM: Registered nosave memory: [mem 0xf80fa000-0xf80fafff]
[    0.000000] PM: Registered nosave memory: [mem 0xf80fb000-0xf80fcfff]
[    0.000000] PM: Registered nosave memory: [mem 0xf80fd000-0xf80fdfff]
[    0.000000] PM: Registered nosave memory: [mem 0xf80fe000-0xfdffffff]
[    0.000000] PM: Registered nosave memory: [mem 0xfe000000-0xfe010fff]
[    0.000000] PM: Registered nosave memory: [mem 0xfe011000-0xffffffff]
[    0.000000] e820: [mem 0xcc800000-0xf80f9fff] available for PCI devices
[    0.000000] Booting paravirtualized kernel on bare hardware
[    0.000000] clocksource: refined-jiffies: mask: 0xffffffff max_cycles: 0xffffffff, max_idle_ns: 1910969940391419 ns
[    0.000000] setup_percpu: NR_CPUS:64 nr_cpumask_bits:64 nr_cpu_ids:8 nr_node_ids:1
[    0.000000] percpu: Embedded 34 pages/cpu @ffff880831400000 s98840 r8192 d32232 u262144
[    0.000000] pcpu-alloc: s98840 r8192 d32232 u262144 alloc=1*2097152
[    0.000000] pcpu-alloc: [0] 0 1 2 3 4 5 6 7 
[    0.000000] Built 1 zonelists in Node order, mobility grouping on.  Total pages: 8227356
[    0.000000] Policy zone: Normal
[    0.000000] Kernel command line: BOOT_IMAGE=(hd0)/boot/vmlinuz root=live:CDLABEL=VOID_LIVE ro init=/sbin/init rd.luks=0 rd.md=0 rd.dm=0 loglevel=4 gpt add_efi_memmap vconsole.unicode=1 vconsole.keymap=us locale.LANG=en_US.UTF-8 loglevel=6 printk.time=1 consoleblank=0 net.ifnames=0
[    0.000000] PID hash table entries: 4096 (order: 3, 32768 bytes)
[    0.000000] Calgary: detecting Calgary via BIOS EBDA area
[    0.000000] Calgary: Unable to locate Rio Grande table in EBDA - bailing!
[    0.000000] Memory: 32556592K/33432164K available (6181K kernel code, 1052K rwdata, 1916K rodata, 1300K init, 1240K bss, 875572K reserved, 0K cma-reserved)
[    0.000000] SLUB: HWalign=64, Order=0-3, MinObjects=0, CPUs=8, Nodes=1
[    0.000000] Preemptible hierarchical RCU implementation.
[    0.000000] 	Build-time adjustment of leaf fanout to 64.
[    0.000000] 	RCU restricting CPUs from NR_CPUS=64 to nr_cpu_ids=8.
[    0.000000] RCU: Adjusting geometry for rcu_fanout_leaf=64, nr_cpu_ids=8
[    0.000000] NR_IRQS:4352 nr_irqs:2048 16
[    0.000000] Console: colour dummy device 80x25
[    0.000000] console [tty0] enabled
[    0.000000] clocksource: hpet: mask: 0xffffffff max_cycles: 0xffffffff, max_idle_ns: 79635855245 ns
[    0.000000] hpet clockevent registered
[    0.000000] tsc: PIT calibration matches HPET. 1 loops
[    0.000000] tsc: Detected 2807.946 MHz processor
[    0.000003] Calibrating delay loop (skipped), value calculated using timer frequency.. 5615.89 BogoMIPS (lpj=2807946)
[    0.000004] pid_max: default: 32768 minimum: 301
[    0.000009] ACPI: Core revision 20160422
[    0.028060] ACPI: 11 ACPI AML tables successfully acquired and loaded

[    0.028399] Security Framework initialized
[    0.028400] Yama: becoming mindful.
[    0.029711] Dentry cache hash table entries: 4194304 (order: 13, 33554432 bytes)
[    0.034293] Inode-cache hash table entries: 2097152 (order: 12, 16777216 bytes)
[    0.036292] Mount-cache hash table entries: 65536 (order: 7, 524288 bytes)
[    0.036339] Mountpoint-cache hash table entries: 65536 (order: 7, 524288 bytes)
[    0.036595] CPU: Physical Processor ID: 0
[    0.036596] CPU: Processor Core ID: 0
[    0.036599] ENERGY_PERF_BIAS: Set to 'normal', was 'performance'
[    0.036602] ENERGY_PERF_BIAS: View and update with x86_energy_perf_policy(8)
[    0.036608] mce: CPU supports 8 MCE banks
[    0.036616] CPU0: Thermal monitoring enabled (TM1)
[    0.036628] process: using mwait in idle threads
[    0.036630] Last level iTLB entries: 4KB 64, 2MB 8, 4MB 8
[    0.036631] Last level dTLB entries: 4KB 64, 2MB 0, 4MB 0, 1GB 4
[    0.036944] Freeing SMP alternatives memory: 24K (ffffffff81c4e000 - ffffffff81c54000)
[    0.042609] ftrace: allocating 25388 entries in 100 pages
[    0.050000] smpboot: Max logical packages: 4
[    0.050001] smpboot: APIC(0) Converting physical 0 to logical package 0
[    0.051233] x2apic: IRQ remapping doesn't support X2APIC mode
[    0.055494] ..TIMER: vector=0x30 apic1=0 pin1=2 apic2=-1 pin2=-1
[    0.065500] TSC deadline timer enabled
[    0.065506] smpboot: CPU0: Intel(R) Core(TM) i7-6600U CPU @ 2.60GHz (family: 0x6, model: 0x4e, stepping: 0x3)
[    0.065509] Performance Events: PEBS fmt3+, 32-deep LBR, Skylake events, full-width counters, Intel PMU driver.
[    0.065529] ... version:                4
[    0.065530] ... bit width:              48
[    0.065531] ... generic registers:      4
[    0.065531] ... value mask:             0000ffffffffffff
[    0.065532] ... max period:             0000ffffffffffff
[    0.065532] ... fixed-purpose events:   3
[    0.065533] ... event mask:             000000070000000f
[    0.072714] NMI watchdog: enabled on all CPUs, permanently consumes one hw-PMU counter.
[    0.077671] x86: Booting SMP configuration:
[    0.077672] .... node  #0, CPUs:      #1 #2 #3
[    0.271940] x86: Booted up 1 node, 4 CPUs
[    0.271943] smpboot: Total of 4 processors activated (22474.96 BogoMIPS)
[    0.275733] devtmpfs: initialized
[    0.275785] x86/mm: Memory block size: 128MB
[    0.278440] PM: Registering ACPI NVS region [mem 0xc7c7f000-0xc7e7efff] (2097152 bytes)
[    0.278484] clocksource: jiffies: mask: 0xffffffff max_cycles: 0xffffffff, max_idle_ns: 1911260446275000 ns
[    0.278512] pinctrl core: initialized pinctrl subsystem
[    0.278637] NET: Registered protocol family 16
[    0.283229] cpuidle: using governor ladder
[    0.287255] cpuidle: using governor menu
[    0.287314] ACPI FADT declares the system doesn't support PCIe ASPM, so disable it
[    0.287315] ACPI: bus type PCI registered
[    0.287316] acpiphp: ACPI Hot Plug PCI Controller Driver version: 0.5
[    0.287366] PCI: MMCONFIG for domain 0000 [bus 00-3f] at [mem 0xf8000000-0xfbffffff] (base 0xf8000000)
[    0.287368] PCI: not using MMCONFIG
[    0.287369] PCI: Using configuration type 1 for base access
[    0.291345] HugeTLB registered 1 GB page size, pre-allocated 0 pages
[    0.291346] HugeTLB registered 2 MB page size, pre-allocated 0 pages
[    0.291505] ACPI: Added _OSI(Module Device)
[    0.291506] ACPI: Added _OSI(Processor Device)
[    0.291507] ACPI: Added _OSI(3.0 _SCP Extensions)
[    0.291508] ACPI: Added _OSI(Processor Aggregator Device)
[    0.292370] ACPI: Executed 17 blocks of module-level executable AML code
[    0.299179] ACPI: [Firmware Bug]: BIOS _OSI(Linux) query ignored
[    0.303260] ACPI: Dynamic OEM Table Load:
[    0.303278] ACPI: SSDT 0xFFFF88080D342800 0006A2 (v02 PmRef  Cpu0Ist  00003000 INTL 20121018)
[    0.303895] ACPI: \_PR_.CPU0: _OSC native thermal LVT Acked
[    0.304649] ACPI: Dynamic OEM Table Load:
[    0.304656] ACPI: SSDT 0xFFFF88080D33EC00 00037F (v02 PmRef  Cpu0Cst  00003001 INTL 20121018)
[    0.305620] ACPI: Dynamic OEM Table Load:
[    0.305627] ACPI: SSDT 0xFFFF88080D343000 0005AA (v02 PmRef  ApIst    00003000 INTL 20121018)
[    0.306422] ACPI: Dynamic OEM Table Load:
[    0.306428] ACPI: SSDT 0xFFFF88080D3B5C00 000119 (v02 PmRef  ApCst    00003000 INTL 20121018)
[    0.308070] ACPI : EC: EC started
[    3.629119] ACPI: Interpreter enabled
[    3.629156] ACPI: (supports S0 S3 S4 S5)
[    3.629157] ACPI: Using IOAPIC for interrupt routing
[    3.629188] PCI: MMCONFIG for domain 0000 [bus 00-3f] at [mem 0xf8000000-0xfbffffff] (base 0xf8000000)
[    3.631159] PCI: MMCONFIG at [mem 0xf8000000-0xfbffffff] reserved in ACPI motherboard resources
[    3.631165] PCI: Using host bridge windows from ACPI; if necessary, use "pci=nocrs" and report a bug
[    3.632094] ACPI: Power Resource [PG01] (on)
[    3.632366] ACPI: Power Resource [PG02] (on)
[    3.632643] ACPI: Power Resource [PG00] (on)
[    3.636375] ACPI: Power Resource [WRST] (on)
[    3.636517] ACPI: Power Resource [PXP] (on)
[    3.755132] ACPI: Power Resource [WRST] (on)
[    3.755448] ACPI: Power Resource [WRST] (on)
[    3.755860] ACPI: Power Resource [WRST] (on)
[    3.756169] ACPI: Power Resource [WRST] (on)
[    3.756498] ACPI: Power Resource [WRST] (on)
[    3.756811] ACPI: Power Resource [WRST] (on)
[    3.757123] ACPI: Power Resource [WRST] (on)
[    3.757430] ACPI: Power Resource [WRST] (on)
[    3.757741] ACPI: Power Resource [WRST] (on)
[    3.758049] ACPI: Power Resource [WRST] (on)
[    3.758358] ACPI: Power Resource [WRST] (on)
[    3.758639] ACPI: Power Resource [WRST] (on)
[    3.758926] ACPI: Power Resource [WRST] (on)
[    3.759208] ACPI: Power Resource [WRST] (on)
[    3.759490] ACPI: Power Resource [WRST] (on)
[    3.759778] ACPI: Power Resource [WRST] (on)
[    3.760063] ACPI: Power Resource [WRST] (on)
[    3.760354] ACPI: Power Resource [WRST] (on)
[    3.760636] ACPI: Power Resource [WRST] (on)
[    3.764996] ACPI: PCI Root Bridge [PCI0] (domain 0000 [bus 00-3e])
[    3.765001] acpi PNP0A08:00: _OSC: OS supports [ExtendedConfig ASPM ClockPM Segments MSI]
[    3.767164] acpi PNP0A08:00: _OSC: OS now controls [PCIeHotplug PME AER PCIeCapability]
[    3.767165] acpi PNP0A08:00: FADT indicates ASPM is unsupported, using BIOS configuration
[    3.768637] PCI host bridge to bus 0000:00
[    3.768639] pci_bus 0000:00: root bus resource [io  0x0000-0x0cf7 window]
[    3.768641] pci_bus 0000:00: root bus resource [io  0x0d00-0xffff window]
[    3.768642] pci_bus 0000:00: root bus resource [mem 0x000a0000-0x000bffff window]
[    3.768643] pci_bus 0000:00: root bus resource [mem 0xcc800000-0xf7ffffff window]
[    3.768644] pci_bus 0000:00: root bus resource [mem 0xfd000000-0xfe7fffff window]
[    3.768645] pci_bus 0000:00: root bus resource [bus 00-3e]
[    3.768652] pci 0000:00:00.0: [8086:1904] type 00 class 0x060000
[    3.769224] pci 0000:00:02.0: [8086:1916] type 00 class 0x030000
[    3.769233] pci 0000:00:02.0: reg 0x10: [mem 0xe0000000-0xe0ffffff 64bit]
[    3.769240] pci 0000:00:02.0: reg 0x18: [mem 0xd0000000-0xdfffffff 64bit pref]
[    3.769244] pci 0000:00:02.0: reg 0x20: [io  0x3000-0x303f]
[    3.769882] pci 0000:00:14.0: [8086:9d2f] type 00 class 0x0c0330
[    3.769900] pci 0000:00:14.0: reg 0x10: [mem 0xe1220000-0xe122ffff 64bit]
[    3.769968] pci 0000:00:14.0: PME# supported from D3hot D3cold
[    3.770555] pci 0000:00:14.0: System wakeup disabled by ACPI
[    3.770587] pci 0000:00:14.2: [8086:9d31] type 00 class 0x118000
[    3.770605] pci 0000:00:14.2: reg 0x10: [mem 0xe124b000-0xe124bfff 64bit]
[    3.771303] pci 0000:00:15.0: [8086:9d60] type 00 class 0x118000
[    3.771512] pci 0000:00:15.0: reg 0x10: [mem 0xe124c000-0xe124cfff 64bit]
[    3.772786] pci 0000:00:16.0: [8086:9d3a] type 00 class 0x078000
[    3.772817] pci 0000:00:16.0: reg 0x10: [mem 0xe124d000-0xe124dfff 64bit]
[    3.772928] pci 0000:00:16.0: PME# supported from D3hot
[    3.773428] pci 0000:00:16.3: [8086:9d3d] type 00 class 0x070002
[    3.773443] pci 0000:00:16.3: reg 0x10: [io  0x3080-0x3087]
[    3.773450] pci 0000:00:16.3: reg 0x14: [mem 0xe124a000-0xe124afff]
[    3.773999] pci 0000:00:17.0: [8086:9d03] type 00 class 0x010601
[    3.774013] pci 0000:00:17.0: reg 0x10: [mem 0xe1248000-0xe1249fff]
[    3.774020] pci 0000:00:17.0: reg 0x14: [mem 0xe1250000-0xe12500ff]
[    3.774027] pci 0000:00:17.0: reg 0x18: [io  0x3088-0x308f]
[    3.774034] pci 0000:00:17.0: reg 0x1c: [io  0x3090-0x3093]
[    3.774041] pci 0000:00:17.0: reg 0x20: [io  0x3040-0x305f]
[    3.774048] pci 0000:00:17.0: reg 0x24: [mem 0xe124e000-0xe124e7ff]
[    3.774086] pci 0000:00:17.0: PME# supported from D3hot
[    3.774591] pci 0000:00:1c.0: [8086:9d11] type 01 class 0x060400
[    3.774646] pci 0000:00:1c.0: PME# supported from D0 D3hot D3cold
[    3.775152] pci 0000:00:1c.0: System wakeup disabled by ACPI
[    3.775182] pci 0000:00:1c.3: [8086:9d13] type 01 class 0x060400
[    3.775238] pci 0000:00:1c.3: PME# supported from D0 D3hot D3cold
[    3.775724] pci 0000:00:1c.3: System wakeup disabled by ACPI
[    3.775766] pci 0000:00:1f.0: [8086:9d48] type 00 class 0x060100
[    3.776318] pci 0000:00:1f.2: [8086:9d21] type 00 class 0x058000
[    3.776327] pci 0000:00:1f.2: reg 0x10: [mem 0xe1240000-0xe1243fff]
[    3.776863] pci 0000:00:1f.3: [8086:9d70] type 00 class 0x040380
[    3.776883] pci 0000:00:1f.3: reg 0x10: [mem 0xe1244000-0xe1247fff 64bit]
[    3.776907] pci 0000:00:1f.3: reg 0x20: [mem 0xe1230000-0xe123ffff 64bit]
[    3.776952] pci 0000:00:1f.3: PME# supported from D3hot D3cold
[    3.777414] pci 0000:00:1f.3: System wakeup disabled by ACPI
[    3.777443] pci 0000:00:1f.4: [8086:9d23] type 00 class 0x0c0500
[    3.777482] pci 0000:00:1f.4: reg 0x10: [mem 0xe124f000-0xe124f0ff 64bit]
[    3.777532] pci 0000:00:1f.4: reg 0x20: [io  0xefa0-0xefbf]
[    3.778053] pci 0000:00:1f.6: [8086:156f] type 00 class 0x020000
[    3.778071] pci 0000:00:1f.6: reg 0x10: [mem 0xe1200000-0xe121ffff]
[    3.778161] pci 0000:00:1f.6: PME# supported from D0 D3hot D3cold
[    3.778606] pci 0000:00:1f.6: System wakeup disabled by ACPI
[    3.778682] pci 0000:01:00.0: [10ec:522a] type 00 class 0xff0000
[    3.778701] pci 0000:01:00.0: reg 0x10: [mem 0xe1000000-0xe1000fff]
[    3.778821] pci 0000:01:00.0: supports D1 D2
[    3.778822] pci 0000:01:00.0: PME# supported from D1 D2 D3hot D3cold
[    3.778893] pci 0000:01:00.0: System wakeup disabled by ACPI
[    3.780784] pci 0000:00:1c.0: PCI bridge to [bus 01]
[    3.780787] pci 0000:00:1c.0:   bridge window [mem 0xe1000000-0xe10fffff]
[    3.780893] pci 0000:02:00.0: [8086:24f3] type 00 class 0x028000
[    3.780924] pci 0000:02:00.0: reg 0x10: [mem 0xe1100000-0xe1101fff 64bit]
[    3.781171] pci 0000:02:00.0: PME# supported from D0 D3hot D3cold
[    3.781297] pci 0000:02:00.0: System wakeup disabled by ACPI
[    3.782837] pci 0000:00:1c.3: PCI bridge to [bus 02]
[    3.782841] pci 0000:00:1c.3:   bridge window [mem 0xe1100000-0xe11fffff]
[    3.784415] ACPI: PCI Interrupt Link [LNKA] (IRQs 3 4 5 6 10 *11 12 14 15)
[    3.784458] ACPI: PCI Interrupt Link [LNKB] (IRQs 3 4 5 6 *10 11 12 14 15)
[    3.784499] ACPI: PCI Interrupt Link [LNKC] (IRQs 3 4 5 6 10 *11 12 14 15)
[    3.784539] ACPI: PCI Interrupt Link [LNKD] (IRQs 3 4 5 6 10 *11 12 14 15)
[    3.784577] ACPI: PCI Interrupt Link [LNKE] (IRQs 3 4 5 6 10 *11 12 14 15)
[    3.784616] ACPI: PCI Interrupt Link [LNKF] (IRQs 3 4 5 6 10 *11 12 14 15)
[    3.784655] ACPI: PCI Interrupt Link [LNKG] (IRQs 3 4 5 6 10 *11 12 14 15)
[    3.784693] ACPI: PCI Interrupt Link [LNKH] (IRQs 3 4 5 6 10 *11 12 14 15)
[    3.784981] ACPI: Enabled 6 GPEs in block 00 to 7F
[    3.785028] ACPI : EC: EC stopped
[    3.785055] ACPI : EC: GPE = 0x6e, I/O: command/status = 0x66, data = 0x62
[    3.785056] ACPI : EC: EC started
[    7.104862] vgaarb: setting as boot device: PCI:0000:00:02.0
[    7.104864] vgaarb: device added: PCI:0000:00:02.0,decodes=io+mem,owns=io+mem,locks=none
[    7.104866] vgaarb: loaded
[    7.104867] vgaarb: bridge control possible 0000:00:02.0
[    7.104916] pps_core: LinuxPPS API ver. 1 registered
[    7.104917] pps_core: Software ver. 5.3.6 - Copyright 2005-2007 Rodolfo Giometti <giometti@linux.it>
[    7.104919] PTP clock support registered
[    7.104970] PCI: Using ACPI for IRQ routing
[    7.111765] PCI: pci_cache_line_size set to 64 bytes
[    7.111939] e820: reserve RAM buffer [mem 0x00058000-0x0005ffff]
[    7.111940] e820: reserve RAM buffer [mem 0x0009e000-0x0009ffff]
[    7.111941] e820: reserve RAM buffer [mem 0xc70fb000-0xc7ffffff]
[    7.111942] e820: reserve RAM buffer [mem 0xc7f00000-0xc7ffffff]
[    7.111942] e820: reserve RAM buffer [mem 0x831800000-0x833ffffff]
[    7.112091] hpet0: at MMIO 0xfed00000, IRQs 2, 8, 0, 0, 0, 0, 0, 0
[    7.112094] hpet0: 8 comparators, 64-bit 24.000000 MHz counter
[    7.114121] amd_nb: Cannot enumerate AMD northbridges
[    7.114133] clocksource: Switched to clocksource hpet
[    7.117894] VFS: Disk quotas dquot_6.6.0
[    7.117906] VFS: Dquot-cache hash table entries: 512 (order 0, 4096 bytes)
[    7.117947] pnp: PnP ACPI init
[    7.118043] system 00:00: [mem 0xfd000000-0xfdabffff] has been reserved
[    7.118044] system 00:00: [mem 0xfdad0000-0xfdadffff] has been reserved
[    7.118045] system 00:00: [mem 0xfdb00000-0xfdffffff] has been reserved
[    7.118046] system 00:00: [mem 0xfe000000-0xfe01ffff] could not be reserved
[    7.118047] system 00:00: [mem 0xfe03d000-0xfe3fffff] has been reserved
[    7.118049] system 00:00: Plug and Play ACPI device, IDs PNP0c02 (active)
[    7.118259] system 00:01: [io  0x2000-0x20fe] has been reserved
[    7.118260] system 00:01: Plug and Play ACPI device, IDs PNP0c02 (active)
[    7.118403] system 00:02: [io  0x0680-0x069f] has been reserved
[    7.118405] system 00:02: [io  0xffff] has been reserved
[    7.118405] system 00:02: [io  0xffff] has been reserved
[    7.118406] system 00:02: [io  0xffff] has been reserved
[    7.118407] system 00:02: [io  0x1800-0x18fe] has been reserved
[    7.118408] system 00:02: [io  0x164e-0x164f] has been reserved
[    7.118410] system 00:02: Plug and Play ACPI device, IDs PNP0c02 (active)
[    7.118469] pnp 00:03: Plug and Play ACPI device, IDs PNP0b00 (active)
[    7.118490] system 00:04: [io  0x1854-0x1857] has been reserved
[    7.118492] system 00:04: Plug and Play ACPI device, IDs INT3f0d PNP0c02 (active)
[    7.118503] pnp 00:05: Plug and Play ACPI device, IDs HPQ8002 PNP0303 (active)
[    7.118514] pnp 00:06: Plug and Play ACPI device, IDs SYN3037 SYN0100 SYN0002 PNP0f13 (active)
[    7.118549] system 00:07: [io  0x0200-0x023f] has been reserved
[    7.118550] system 00:07: [mem 0xfedf0000-0xfedfffff] has been reserved
[    7.118551] system 00:07: Plug and Play ACPI device, IDs PNP0c02 (active)
[    7.119274] system 00:08: [mem 0xfe031000-0xfe031fff] has been reserved
[    7.119275] system 00:08: [mem 0xfe030008-0xfe030fff] has been reserved
[    7.119276] system 00:08: Plug and Play ACPI device, IDs PNP0c02 (active)
[    7.119538] system 00:09: [mem 0xfe030000-0xfe030007] has been reserved
[    7.119540] system 00:09: Plug and Play ACPI device, IDs PNP0c02 (active)
[    7.119696] system 00:0a: [mem 0xfed10000-0xfed17fff] has been reserved
[    7.119697] system 00:0a: [mem 0xfed18000-0xfed18fff] has been reserved
[    7.119698] system 00:0a: [mem 0xfed19000-0xfed19fff] has been reserved
[    7.119699] system 00:0a: [mem 0xf8000000-0xfbffffff] could not be reserved
[    7.119700] system 00:0a: [mem 0xfed20000-0xfed3ffff] has been reserved
[    7.119701] system 00:0a: [mem 0xfed90000-0xfed93fff] has been reserved
[    7.119702] system 00:0a: [mem 0xfed45000-0xfed8ffff] has been reserved
[    7.119703] system 00:0a: [mem 0xff000000-0xffffffff] has been reserved
[    7.119704] system 00:0a: [mem 0xfee00000-0xfeefffff] has been reserved
[    7.119705] system 00:0a: [mem 0xcc800000-0xcc81ffff] has been reserved
[    7.119707] system 00:0a: Plug and Play ACPI device, IDs PNP0c02 (active)
[    7.119872] pnp 00:0b: Plug and Play ACPI device, IDs IFX0102 PNP0c31 (active)
[    7.119960] pnp: PnP ACPI: found 12 devices
[    7.127861] clocksource: acpi_pm: mask: 0xffffff max_cycles: 0xffffff, max_idle_ns: 2085701024 ns
[    7.127870] pci 0000:00:1c.0: bridge window [io  0x1000-0x0fff] to [bus 01] add_size 1000
[    7.127872] pci 0000:00:1c.0: bridge window [mem 0x00100000-0x000fffff 64bit pref] to [bus 01] add_size 200000 add_align 100000
[    7.127879] pci 0000:00:1c.0: res[15]=[mem 0x00100000-0x000fffff 64bit pref] res_to_dev_res add_size 200000 min_align 100000
[    7.127880] pci 0000:00:1c.0: res[15]=[mem 0x00100000-0x002fffff 64bit pref] res_to_dev_res add_size 200000 min_align 100000
[    7.127881] pci 0000:00:1c.0: res[13]=[io  0x1000-0x0fff] res_to_dev_res add_size 1000 min_align 1000
[    7.127882] pci 0000:00:1c.0: res[13]=[io  0x1000-0x1fff] res_to_dev_res add_size 1000 min_align 1000
[    7.127886] pci 0000:00:1c.0: BAR 15: assigned [mem 0xcc900000-0xccafffff 64bit pref]
[    7.127888] pci 0000:00:1c.0: BAR 13: assigned [io  0x4000-0x4fff]
[    7.127889] pci 0000:00:1c.0: PCI bridge to [bus 01]
[    7.127891] pci 0000:00:1c.0:   bridge window [io  0x4000-0x4fff]
[    7.127894] pci 0000:00:1c.0:   bridge window [mem 0xe1000000-0xe10fffff]
[    7.127896] pci 0000:00:1c.0:   bridge window [mem 0xcc900000-0xccafffff 64bit pref]
[    7.127900] pci 0000:00:1c.3: PCI bridge to [bus 02]
[    7.127903] pci 0000:00:1c.3:   bridge window [mem 0xe1100000-0xe11fffff]
[    7.127908] pci_bus 0000:00: resource 4 [io  0x0000-0x0cf7 window]
[    7.127909] pci_bus 0000:00: resource 5 [io  0x0d00-0xffff window]
[    7.127909] pci_bus 0000:00: resource 6 [mem 0x000a0000-0x000bffff window]
[    7.127910] pci_bus 0000:00: resource 7 [mem 0xcc800000-0xf7ffffff window]
[    7.127911] pci_bus 0000:00: resource 8 [mem 0xfd000000-0xfe7fffff window]
[    7.127912] pci_bus 0000:01: resource 0 [io  0x4000-0x4fff]
[    7.127913] pci_bus 0000:01: resource 1 [mem 0xe1000000-0xe10fffff]
[    7.127914] pci_bus 0000:01: resource 2 [mem 0xcc900000-0xccafffff 64bit pref]
[    7.127915] pci_bus 0000:02: resource 1 [mem 0xe1100000-0xe11fffff]
[    7.127930] NET: Registered protocol family 2
[    7.128061] TCP established hash table entries: 262144 (order: 9, 2097152 bytes)
[    7.128330] TCP bind hash table entries: 65536 (order: 8, 1048576 bytes)
[    7.128441] TCP: Hash tables configured (established 262144 bind 65536)
[    7.128467] UDP hash table entries: 16384 (order: 7, 524288 bytes)
[    7.128546] UDP-Lite hash table entries: 16384 (order: 7, 524288 bytes)
[    7.128627] NET: Registered protocol family 1
[    7.128635] pci 0000:00:02.0: Video device with shadowed ROM at [mem 0x000c0000-0x000dffff]
[    7.128889] PCI: CLS 0 bytes, default 64
[    7.128915] Unpacking initramfs...
[    9.256411] Freeing initrd memory: 31636K (ffff880034225000 - ffff88003610a000)
[    9.256415] PCI-DMA: Using software bounce buffering for IO (SWIOTLB)
[    9.256417] software IO TLB [mem 0xb407a000-0xb807a000] (64MB) mapped at [ffff8800b407a000-ffff8800b8079fff]
[    9.256506] Scanning for low memory corruption every 60 seconds
[    9.256693] futex hash table entries: 2048 (order: 5, 131072 bytes)
[    9.256714] audit: initializing netlink subsys (disabled)
[    9.256727] audit: type=2000 audit(1478084419.213:1): initialized
[    9.256940] Initialise system trusted keyrings
[    9.257148] workingset: timestamp_bits=37 max_order=23 bucket_order=0
[    9.258258] zbud: loaded
[    9.259403] Key type asymmetric registered
[    9.259406] Asymmetric key parser 'x509' registered
[    9.259431] Block layer SCSI generic (bsg) driver version 0.4 loaded (major 247)
[    9.259517] io scheduler noop registered
[    9.259518] io scheduler deadline registered
[    9.259538] io scheduler cfq registered (default)
[    9.259911] aer 0000:00:1c.0:pcie002: service driver aer loaded
[    9.259930] aer 0000:00:1c.3:pcie002: service driver aer loaded
[    9.259938] pcieport 0000:00:1c.0: Signaling PME through PCIe PME interrupt
[    9.259939] pci 0000:01:00.0: Signaling PME through PCIe PME interrupt
[    9.259941] pcie_pme 0000:00:1c.0:pcie001: service driver pcie_pme loaded
[    9.259946] pcieport 0000:00:1c.3: Signaling PME through PCIe PME interrupt
[    9.259947] pci 0000:02:00.0: Signaling PME through PCIe PME interrupt
[    9.259949] pcie_pme 0000:00:1c.3:pcie001: service driver pcie_pme loaded
[    9.259952] pci_hotplug: PCI Hot Plug PCI Core version: 0.5
[    9.259957] pciehp 0000:00:1c.0:pcie004: Slot #1 AttnBtn- PwrCtrl- MRL- AttnInd- PwrInd- HotPlug+ Surprise+ Interlock- NoCompl+ LLActRep+
[    9.259990] pciehp 0000:00:1c.0:pcie004: service driver pciehp loaded
[    9.259993] pciehp: PCI Express Hot Plug Controller Driver version: 0.4
[    9.260003] efifb: probing for efifb
[    9.260010] efifb: framebuffer at 0xd0000000, using 3072k, total 3072k
[    9.260011] efifb: mode is 1024x768x32, linelength=4096, pages=1
[    9.260012] efifb: scrolling: redraw
[    9.260013] efifb: Truecolor: size=8:8:8:8, shift=24:16:8:0
[    9.261321] Console: switching to colour frame buffer device 128x48
[    9.262475] fb0: EFI VGA frame buffer device
[    9.262480] intel_idle: MWAIT substates: 0x11142120
[    9.262480] intel_idle: v0.4.1 model 0x4E
[    9.262622] intel_idle: lapic_timer_reliable_states 0xffffffff
[    9.262753] GHES: HEST is not enabled!
[    9.262791] Serial: 8250/16550 driver, 4 ports, IRQ sharing enabled
[    9.263058] serial 0000:00:16.3: enabling device (0000 -> 0003)
[    9.283805] 0000:00:16.3: ttyS0 at I/O 0x3080 (irq = 19, base_baud = 115200) is a 16550A
[    9.284302] pcnet32: pcnet32.c:v1.35 21.Apr.2008 tsbogend@alpha.franken.de
[    9.284307] e100: Intel(R) PRO/100 Network Driver, 3.5.24-k2-NAPI
[    9.284308] e100: Copyright(c) 1999-2006 Intel Corporation
[    9.284315] e1000: Intel(R) PRO/1000 Network Driver - version 7.3.21-k8-NAPI
[    9.284316] e1000: Copyright (c) 1999-2006 Intel Corporation.
[    9.284323] e1000e: Intel(R) PRO/1000 Network Driver - 3.2.6-k
[    9.284324] e1000e: Copyright(c) 1999 - 2015 Intel Corporation.
[    9.284443] e1000e 0000:00:1f.6: Interrupt Throttling Rate (ints/sec) set to dynamic conservative mode
[    9.476681] e1000e 0000:00:1f.6 0000:00:1f.6 (uninitialized): registered PHC clock
[    9.556812] e1000e 0000:00:1f.6 eth0: (PCI Express:2.5GT/s:Width x1) c8:d3:ff:69:29:3f
[    9.556819] e1000e 0000:00:1f.6 eth0: Intel(R) PRO/1000 Network Connection
[    9.556891] e1000e 0000:00:1f.6 eth0: MAC: 12, PHY: 12, PBA No: FFFFFF-0FF
[    9.556930] i8042: PNP: PS/2 Controller [PNP0303:PS2K,PNP0f13:PS2M] at 0x60,0x64 irq 1,12
[    9.558404] i8042: Detected active multiplexing controller, rev 1.1
[    9.558956] serio: i8042 KBD port at 0x60,0x64 irq 1
[    9.558980] serio: i8042 AUX0 port at 0x60,0x64 irq 12
[    9.558996] serio: i8042 AUX1 port at 0x60,0x64 irq 12
[    9.559012] serio: i8042 AUX2 port at 0x60,0x64 irq 12
[    9.559027] serio: i8042 AUX3 port at 0x60,0x64 irq 12
[    9.559159] mousedev: PS/2 mouse device common for all mice
[    9.559256] rtc_cmos 00:03: RTC can wake from S4
[    9.559669] rtc_cmos 00:03: rtc core: registered rtc_cmos as rtc0
[    9.559750] rtc_cmos 00:03: alarms up to one month, y3k, 242 bytes nvram, hpet irqs
[    9.559756] intel_pstate: Intel P-state driver initializing
[    9.560024] intel_pstate: HWP enabled
[    9.560028] ledtrig-cpu: registered to indicate activity on CPUs
[    9.560029] EFI Variables Facility v0.08 2004-May-17
[    9.584334] input: AT Translated Set 2 keyboard as /devices/platform/i8042/serio0/input/input0
[    9.590877] intel_pmc_core 0000:00:1f.2: enabling device (0000 -> 0002)
[    9.591055] NET: Registered protocol family 10
[    9.591398] NET: Registered protocol family 17
[    9.591419] Key type dns_resolver registered
[    9.591602] microcode: CPU0 sig=0x406e3, pf=0x80, revision=0x94
[    9.591626] microcode: CPU1 sig=0x406e3, pf=0x80, revision=0x94
[    9.591661] microcode: CPU2 sig=0x406e3, pf=0x80, revision=0x94
[    9.591664] microcode: CPU3 sig=0x406e3, pf=0x80, revision=0x94
[    9.591717] microcode: Microcode Update Driver: v2.01 <tigran@aivazian.fsnet.co.uk>, Peter Oruba
[    9.591911] registered taskstats version 1
[    9.591913] Loading compiled-in X.509 certificates
[    9.591934] zswap: loaded using pool lzo/zbud
[    9.593027] rtc_cmos 00:03: setting system clock to 2016-11-02 11:00:20 UTC (1478084420)
[    9.593822] Freeing unused kernel memory: 1300K (ffffffff81b09000 - ffffffff81c4e000)
[    9.593824] Write protecting the kernel read-only data: 10240k
[    9.594320] Freeing unused kernel memory: 1996K (ffff88000260d000 - ffff880002800000)
[    9.594571] Freeing unused kernel memory: 132K (ffff8800029df000 - ffff880002a00000)
[    9.632995] dracut: dracut-044
[    9.678420] dracut: rd.luks=0: removing cryptoluks activation
[    9.683677] loop: module loaded
[    9.685015] dracut: root was live:CDLABEL=VOID_LIVE, is now live:/dev/disk/by-label/VOID_LIVE
[    9.705135] dracut: ZFS: Using hostid from /etc/hostid: 00000000
[    9.711093] device-mapper: uevent: version 1.0.3
[    9.711143] device-mapper: ioctl: 4.34.0-ioctl (2015-10-28) initialised: dm-devel@redhat.com
[    9.722163] systemd-udevd[252]: starting version 3.2
[    9.722326] random: systemd-udevd: uninitialized urandom read (16 bytes read, 11 bits of entropy available)
[    9.722364] random: systemd-udevd: uninitialized urandom read (16 bytes read, 11 bits of entropy available)
[    9.722406] random: systemd-udevd: uninitialized urandom read (16 bytes read, 11 bits of entropy available)
[    9.722433] random: systemd-udevd: uninitialized urandom read (16 bytes read, 11 bits of entropy available)
[    9.722469] random: systemd-udevd: uninitialized urandom read (16 bytes read, 11 bits of entropy available)
[    9.723398] udevd[253]: starting eudev-3.2
[    9.727979] dracut: rd.dm=0: removing DM RAID activation
[    9.733564] dracut: rd.md.imsm=0: no MD RAID for imsm/isw raids
[    9.739471] dracut: rd.md.ddf=0: no MD RAID for SNIA ddf raids
[    9.751601] dracut: rd.md=0: removing MD RAID activation
[    9.770727] random: systemd-udevd: uninitialized urandom read (16 bytes read, 11 bits of entropy available)
[    9.770782] random: systemd-udevd: uninitialized urandom read (16 bytes read, 11 bits of entropy available)
[    9.770846] random: systemd-udevd: uninitialized urandom read (16 bytes read, 11 bits of entropy available)
[    9.781326] input: Sleep Button as /devices/LNXSYSTM:00/LNXSYBUS:00/PNP0C0E:00/input/input5
[    9.781329] ACPI: Sleep Button [SLPB]
[    9.781361] input: Lid Switch as /devices/LNXSYSTM:00/LNXSYBUS:00/PNP0C0D:00/input/input6
[    9.781388] ACPI: Lid Switch [LID]
[    9.781427] input: Power Button as /devices/LNXSYSTM:00/LNXPWRBN:00/input/input7
[    9.781428] ACPI: Power Button [PWRF]
[    9.782774] random: systemd-udevd: uninitialized urandom read (16 bytes read, 11 bits of entropy available)
[    9.785323] random: systemd-udevd: uninitialized urandom read (16 bytes read, 11 bits of entropy available)
[    9.797475] hidraw: raw HID events driver (C) Jiri Kosina
[    9.797711] wmi: Mapper loaded
[    9.798964] Linux agpgart interface v0.103
[    9.800085] rtsx_pci 0000:01:00.0: enabling device (0000 -> 0002)
[    9.800264] rtsx_pci 0000:01:00.0: rtsx_pci_acquire_irq: pcr->msi_en = 1, pci->irq = 123
[    9.801621] SCSI subsystem initialized
[    9.802352] ACPI: bus type USB registered
[    9.802371] usbcore: registered new interface driver usbfs
[    9.802380] usbcore: registered new interface driver hub
[    9.802403] usbcore: registered new device driver usb
[    9.804127] [drm] Initialized drm 1.1.0 20060810
[    9.805971] xhci_hcd 0000:00:14.0: xHCI Host Controller
[    9.805977] xhci_hcd 0000:00:14.0: new USB bus registered, assigned bus number 1
[    9.806276] libata version 3.00 loaded.
[    9.807090] xhci_hcd 0000:00:14.0: hcc params 0x200077c1 hci version 0x100 quirks 0x00109810
[    9.807096] xhci_hcd 0000:00:14.0: cache line size of 64 is not supported
[    9.807348] hub 1-0:1.0: USB hub found
[    9.807363] hub 1-0:1.0: 12 ports detected
[    9.811533] AVX2 version of gcm_enc/dec engaged.
[    9.811536] AES CTR mode by8 optimization enabled
[    9.813894] xhci_hcd 0000:00:14.0: xHCI Host Controller
[    9.813899] xhci_hcd 0000:00:14.0: new USB bus registered, assigned bus number 2
[    9.814077] hub 2-0:1.0: USB hub found
[    9.814105] hub 2-0:1.0: 6 ports detected
[    9.817472] usb: port power management may be unreliable
[    9.818512] ahci 0000:00:17.0: version 3.0
[    9.818668] ahci 0000:00:17.0: SSS flag set, parallel bus scan disabled
[    9.818712] ahci 0000:00:17.0: AHCI 0001.0301 32 slots 2 ports 6 Gbps 0x5 impl SATA mode
[    9.818714] ahci 0000:00:17.0: flags: 64bit ncq stag pm led clo only pio slum part deso sadm sds apst 
[    9.819368] scsi host0: ahci
[    9.820269] scsi host1: ahci
[    9.820381] scsi host2: ahci
[    9.820424] ata1: SATA max UDMA/133 abar m2048@0xe124e000 port 0xe124e100 irq 125
[    9.820425] ata2: DUMMY
[    9.820427] ata3: SATA max UDMA/133 abar m2048@0xe124e000 port 0xe124e200 irq 125
[    9.827291] [drm] Memory usable by graphics device = 4096M
[    9.827296] checking generic (d0000000 300000) vs hw (d0000000 10000000)
[    9.827297] fb: switching to inteldrmfb from EFI VGA
[    9.827315] Console: switching to colour dummy device 80x25
[    9.827385] [drm] Replacing VGA console driver
[    9.833288] [drm] Supports vblank timestamp caching Rev 2 (21.10.2013).
[    9.833291] [drm] Driver supports precise vblank timestamp query.
[    9.835946] [drm] Finished loading i915/skl_dmc_ver1.bin (v1.26)
[    9.840307] vgaarb: device changed decodes: PCI:0000:00:02.0,olddecodes=io+mem,decodes=io+mem:owns=io+mem
[    9.856440] ACPI: Video Device [GFX0] (multi-head: yes  rom: no  post: no)
[    9.856656] input: Video Bus as /devices/LNXSYSTM:00/LNXSYBUS:00/PNP0A08:00/LNXVIDEO:00/input/input8
[    9.856697] [drm] Initialized i915 1.6.0 20160425 for 0000:00:02.0 on minor 0
[   10.061639] fbcon: inteldrmfb (fb0) is primary device
[   10.127744] ata1: SATA link up 6.0 Gbps (SStatus 133 SControl 300)
[   10.129294] ata1.00: ACPI cmd f5/00:00:00:00:00:e0 (SECURITY FREEZE LOCK) filtered out
[   10.129299] ata1.00: ACPI cmd b1/c1:00:00:00:00:e0 (DEVICE CONFIGURATION OVERLAY) filtered out
[   10.129569] ata1.00: ATA-9: HGST HTS725050A7E630, GS2OA3C0, max UDMA/133
[   10.129573] ata1.00: 976773168 sectors, multi 16: LBA48 NCQ (depth 31/32), AA
[   10.131302] ata1.00: ACPI cmd f5/00:00:00:00:00:e0 (SECURITY FREEZE LOCK) filtered out
[   10.131307] ata1.00: ACPI cmd b1/c1:00:00:00:00:e0 (DEVICE CONFIGURATION OVERLAY) filtered out
[   10.131580] ata1.00: configured for UDMA/133
[   10.132266] scsi 0:0:0:0: Direct-Access     ATA      HGST HTS725050A7 A3C0 PQ: 0 ANSI: 5
[   10.167457] usb 1-2: new high-speed USB device number 2 using xhci_hcd
[   10.258519] tsc: Refined TSC clocksource calibration: 2807.999 MHz
[   10.258525] clocksource: tsc: mask: 0xffffffffffffffff max_cycles: 0x2879c523a63, max_idle_ns: 440795252908 ns
[   10.347389] usb-storage 1-2:1.0: USB Mass Storage device detected
[   10.348839] scsi host3: usb-storage 1-2:1.0
[   10.349027] usbcore: registered new interface driver usb-storage
[   10.350678] usbcore: registered new interface driver uas
[   10.452384] ata3: SATA link up 6.0 Gbps (SStatus 133 SControl 300)
[   10.453341] ata3.00: ACPI cmd f5/00:00:00:00:00:e0 (SECURITY FREEZE LOCK) filtered out
[   10.453454] ata3.00: ATA-9: SanDisk SD8SN8U-512G-1006, X4120006, max UDMA/133
[   10.453457] ata3.00: 1000215216 sectors, multi 1: LBA48 NCQ (depth 31/32), AA
[   10.455324] ata3.00: ACPI cmd f5/00:00:00:00:00:e0 (SECURITY FREEZE LOCK) filtered out
[   10.456291] ata3.00: configured for UDMA/133
[   10.456996] scsi 2:0:0:0: Direct-Access     ATA      SanDisk SD8SN8U- 0006 PQ: 0 ANSI: 5
[   10.495520] usb 1-7: new full-speed USB device number 3 using xhci_hcd
[   10.815462] usb 1-9: new high-speed USB device number 4 using xhci_hcd
[   11.259052] clocksource: Switched to clocksource tsc
[   11.296680] Console: switching to colour frame buffer device 240x67
[   11.304294] i915 0000:00:02.0: fb0: inteldrmfb frame buffer device
[   11.310349] sd 2:0:0:0: [sdb] 1000215216 512-byte logical blocks: (512 GB/477 GiB)
[   11.310351] sd 0:0:0:0: [sda] 976773168 512-byte logical blocks: (500 GB/466 GiB)
[   11.310351] sd 2:0:0:0: [sdb] 4096-byte physical blocks
[   11.310353] sd 0:0:0:0: [sda] 4096-byte physical blocks
[   11.310383] sd 0:0:0:0: [sda] Write Protect is off
[   11.310385] sd 0:0:0:0: [sda] Mode Sense: 00 3a 00 00
[   11.310390] sd 2:0:0:0: [sdb] Write Protect is off
[   11.310392] sd 2:0:0:0: [sdb] Mode Sense: 00 3a 00 00
[   11.310398] sd 0:0:0:0: [sda] Write cache: enabled, read cache: enabled, doesn't support DPO or FUA
[   11.310404] sd 2:0:0:0: [sdb] Write cache: enabled, read cache: enabled, doesn't support DPO or FUA
[   11.317770]  sdb: sdb1 sdb2
[   11.318626] sd 2:0:0:0: [sdb] Attached SCSI disk
[   11.353517] scsi 3:0:0:0: Direct-Access     Generic  Flash Disk       8.07 PQ: 0 ANSI: 4
[   11.354893] sd 3:0:0:0: [sdc] 8028160 512-byte logical blocks: (4.11 GB/3.83 GiB)
[   11.355655] sd 3:0:0:0: [sdc] Write Protect is off
[   11.355727] sd 3:0:0:0: [sdc] Mode Sense: 23 00 00 00
[   11.356476] sd 3:0:0:0: [sdc] Write cache: disabled, read cache: enabled, doesn't support DPO or FUA
[   11.448270] GPT:Primary header thinks Alt. header is not at the end of the disk.
[   11.448370] GPT:1273855 != 8028159
[   11.448410] GPT:Alternate GPT header not at the end of the disk.
[   11.448474] GPT:1273855 != 8028159
[   11.448513] GPT: Use GNU Parted to correct GPT errors.
[   11.448604]  sdc: sdc1 sdc2
[   11.451429] sd 3:0:0:0: [sdc] Attached SCSI removable disk
[   11.625839] sd 0:0:0:0: [sda] Attached SCSI disk
[   11.746573] [drm] RC6 on
[   11.752156] random: nonblocking pool is initialized
[   12.004443] squashfs: version 4.0 (2009/01/31) Phillip Lougher
[   12.127094] ISO 9660 Extensions: Microsoft Joliet Level 3
[   12.131811] ISO 9660 Extensions: RRIP_1991A
[   12.372028] EXT4-fs (dm-0): mounting ext3 file system using the ext4 subsystem
[   12.373559] EXT4-fs (dm-0): mounted filesystem with ordered data mode. Opts: (null)
[   12.491057] dracut: Mounted root filesystem /dev/mapper/live-rw
[   13.299573] dracut: Switching root
[   14.299002] fuse init (API version 7.25)
[   14.370273] raid6: sse2x1   gen() 10539 MB/s
[   14.387274] raid6: sse2x1   xor()  8564 MB/s
[   14.404272] raid6: sse2x2   gen() 12378 MB/s
[   14.421273] raid6: sse2x2   xor()  9785 MB/s
[   14.438276] raid6: sse2x4   gen() 14730 MB/s
[   14.455273] raid6: sse2x4   xor() 10769 MB/s
[   14.472274] raid6: avx2x1   gen() 22531 MB/s
[   14.489275] raid6: avx2x2   gen() 25648 MB/s
[   14.506276] raid6: avx2x4   gen() 26765 MB/s
[   14.506277] raid6: using algorithm avx2x4 gen() 26765 MB/s
[   14.506278] raid6: using avx2x2 recovery algorithm
[   14.535193] xor: automatically using best checksumming function:
[   14.544278]    avx       : 10224.000 MB/sec
[   14.712711] Btrfs loaded, crc32c=crc32c-intel
[   14.712713] BTRFS: selftest: sectorsize: 4096  nodesize: 4096
[   14.712714] BTRFS: selftest: sectorsize: 4096  nodesize: 8192
[   14.712715] BTRFS: selftest: sectorsize: 4096  nodesize: 16384
[   14.712716] BTRFS: selftest: sectorsize: 4096  nodesize: 32768
[   14.712716] BTRFS: selftest: sectorsize: 4096  nodesize: 65536
[   14.767327] tun: Universal TUN/TAP device driver, 1.6
[   14.767331] tun: (C) 1999-2004 Max Krasnyansky <maxk@qualcomm.com>
[   14.818428] PPP generic driver version 2.4.2
[   14.888424] VFIO - User Level meta-driver version: 0.3
[   15.030213] Bluetooth: Core ver 2.21
[   15.030223] NET: Registered protocol family 31
[   15.030224] Bluetooth: HCI device and connection manager initialized
[   15.030226] Bluetooth: HCI socket layer initialized
[   15.030228] Bluetooth: L2CAP socket layer initialized
[   15.030231] Bluetooth: SCO socket layer initialized
[   15.049559] Bluetooth: Virtual HCI driver ver 1.5
[   15.417417] sd 0:0:0:0: Attached scsi generic sg0 type 0
[   15.417458] sd 2:0:0:0: Attached scsi generic sg1 type 0
[   15.417490] sd 3:0:0:0: Attached scsi generic sg2 type 0
[   15.445871] udevd[739]: starting version 3.2
[   15.522571] udevd[740]: starting eudev-3.2
[   15.710374] tpm_tis 00:0b: 1.2 TPM (device-id 0x1B, rev-id 16)
[   15.788069] shpchp: Standard Hot Plug PCI Controller Driver version: 0.4
[   15.806363] tpm_tis 00:0b: TPM is disabled/deactivated (0x7)
[   15.826937] i801_smbus 0000:00:1f.4: enabling device (0000 -> 0003)
[   15.827081] i801_smbus 0000:00:1f.4: SMBus using PCI interrupt
[   15.841772] intel-lpss 0000:00:15.0: enabling device (0000 -> 0002)
[   15.868840] ACPI: AC Adapter [AC] (on-line)
[   15.897825] FUJITSU Extended Socket Network Device Driver - version 1.1 - Copyright (c) 2015 FUJITSU LIMITED
[   15.952992] Initializing HPQ6001 module
[   15.953045] input: HP Wireless hotkeys as /devices/virtual/input/input9
[   15.962045] idma64 idma64.0: Found Intel integrated DMA 64-bit
[   15.966231] ACPI: Battery Slot [BAT0] (battery present)
[   15.972530] mei_me 0000:00:16.0: enabling device (0000 -> 0002)
[   16.013368] hp_accel: hardware type HPB64xx found
[   16.050138] Bluetooth: HCI UART driver ver 2.3
[   16.050140] Bluetooth: HCI UART protocol H4 registered
[   16.050140] Bluetooth: HCI UART protocol BCSP registered
[   16.050141] Bluetooth: HCI UART protocol LL registered
[   16.050142] Bluetooth: HCI UART protocol ATH3K registered
[   16.050142] Bluetooth: HCI UART protocol Three-wire (H5) registered
[   16.050162] Bluetooth: HCI UART protocol Intel registered
[   16.050170] Bluetooth: HCI UART protocol BCM registered
[   16.050171] Bluetooth: HCI UART protocol QCA registered
[   16.050171] Bluetooth: HCI UART protocol AG6XX registered
[   16.058261] snd_hda_intel 0000:00:1f.3: enabling device (0000 -> 0002)
[   16.058402] snd_hda_intel 0000:00:1f.3: bound 0000:00:02.0 (ops i915_exit [i915])
[   16.090604] usbcore: registered new interface driver btusb
[   16.092401] Bluetooth: hci0: Bootloader revision 0.0 build 2 week 52 2014
[   16.098478] Bluetooth: hci0: Device revision is 5
[   16.098481] Bluetooth: hci0: Secure boot is enabled
[   16.098482] Bluetooth: hci0: OTP lock is enabled
[   16.098483] Bluetooth: hci0: API lock is enabled
[   16.098484] Bluetooth: hci0: Debug lock is disabled
[   16.098486] Bluetooth: hci0: Minimum firmware build 1 week 10 2014
[   16.123102] lis3lv02d: 8 bits 3DC sensor found
[   16.358899] snd_hda_codec_conexant hdaudioC0D0: CX20724: BIOS auto-probing.
[   16.359501] snd_hda_codec_conexant hdaudioC0D0: autoconfig for CX20724: line_outs=1 (0x17/0x0/0x0/0x0/0x0) type:speaker
[   16.359503] snd_hda_codec_conexant hdaudioC0D0:    speaker_outs=0 (0x0/0x0/0x0/0x0/0x0)
[   16.359505] snd_hda_codec_conexant hdaudioC0D0:    hp_outs=1 (0x1d/0x0/0x0/0x0/0x0)
[   16.359506] snd_hda_codec_conexant hdaudioC0D0:    mono: mono_out=0x0
[   16.359507] snd_hda_codec_conexant hdaudioC0D0:    inputs:
[   16.359509] snd_hda_codec_conexant hdaudioC0D0:      Internal Mic=0x1a
[   16.359511] snd_hda_codec_conexant hdaudioC0D0:      Mic=0x19
[   16.360611] snd_hda_codec_conexant hdaudioC0D0: Enable sync_write for stable communication
[   16.413947] Bluetooth: hci0: Found device firmware: intel/ibt-11-5.sfi
[   16.417697] input: HDA Digital PCBeep as /devices/pci0000:00/0000:00:1f.3/sound/card0/input10
[   16.417837] input: HDA Intel PCH Mic as /devices/pci0000:00/0000:00:1f.3/sound/card0/input11
[   16.417866] input: HDA Intel PCH Headphone as /devices/pci0000:00/0000:00:1f.3/sound/card0/input12
[   16.417894] input: HDA Intel PCH HDMI/DP,pcm=3 as /devices/pci0000:00/0000:00:1f.3/sound/card0/input13
[   16.417921] input: HDA Intel PCH HDMI/DP,pcm=7 as /devices/pci0000:00/0000:00:1f.3/sound/card0/input14
[   16.417948] input: HDA Intel PCH HDMI/DP,pcm=8 as /devices/pci0000:00/0000:00:1f.3/sound/card0/input15
[   16.455701] Intel(R) Wireless WiFi driver for Linux
[   16.455703] Copyright(c) 2003- 2015 Intel Corporation
[   16.455833] iwlwifi 0000:02:00.0: enabling device (0000 -> 0002)
[   16.457268] iwlwifi 0000:02:00.0: Unsupported splx structure
[   16.478413] thermal LNXTHERM:00: registered as thermal_zone1
[   16.478415] ACPI: Thermal Zone [CPUZ] (28 C)
[   16.560021] input: PC Speaker as /devices/platform/pcspkr/input/input18
[   16.685265] RAPL PMU: API unit is 2^-32 Joules, 5 fixed counters, 655360 ms ovfl timer
[   16.685267] RAPL PMU: hw unit of domain pp0-core 2^-14 Joules
[   16.685268] RAPL PMU: hw unit of domain package 2^-14 Joules
[   16.685269] RAPL PMU: hw unit of domain dram 2^-14 Joules
[   16.685270] RAPL PMU: hw unit of domain pp1-gpu 2^-14 Joules
[   16.685271] RAPL PMU: hw unit of domain psys 2^-14 Joules
[   16.735666] iwlwifi 0000:02:00.0: loaded firmware version 21.302800.0 op_mode iwlmvm
[   16.812466] media: Linux media interface: v0.10
[   16.852482] thermal LNXTHERM:01: registered as thermal_zone2
[   16.852484] ACPI: Thermal Zone [GFXZ] (0 C)
[   17.119220] kvm: disabled by bios
[   17.119840] Linux video capture interface: v2.00
[   17.141533] iwlwifi 0000:02:00.0: Detected Intel(R) Dual Band Wireless AC 8260, REV=0x208
[   17.143447] iwlwifi 0000:02:00.0: L1 Enabled - LTR Enabled
[   17.144156] iwlwifi 0000:02:00.0: L1 Enabled - LTR Enabled
[   17.193816] intel_rapl: Found RAPL domain package
[   17.193819] intel_rapl: Found RAPL domain core
[   17.193820] intel_rapl: Found RAPL domain uncore
[   17.213140] thermal LNXTHERM:02: registered as thermal_zone3
[   17.213143] ACPI: Thermal Zone [EXTZ] (24 C)
[   17.273068] uvcvideo: Found UVC 1.00 device HP HD Camera (04ca:7054)
[   17.275277] uvcvideo 1-9:1.0: Entity type for entity Extension 4 was not initialized!
[   17.275306] uvcvideo 1-9:1.0: Entity type for entity Processing 2 was not initialized!
[   17.275332] uvcvideo 1-9:1.0: Entity type for entity Camera 1 was not initialized!
[   17.275394] input: HP HD Camera as /devices/pci0000:00/0000:00:14.0/usb1/1-9/1-9:1.0/input/input19
[   17.275440] usbcore: registered new interface driver uvcvideo
[   17.275441] USB Video Class driver (1.1.1)
[   17.291161] ieee80211 phy0: Selected rate control algorithm 'iwl-mvm-rs'
[   17.291376] thermal thermal_zone5: failed to read out thermal zone (-5)
[   17.335029] thermal LNXTHERM:03: registered as thermal_zone6
[   17.335032] ACPI: Thermal Zone [LOCZ] (21 C)
[   17.342739] thermal LNXTHERM:04: registered as thermal_zone7
[   17.342741] ACPI: Thermal Zone [BATZ] (22 C)
[   17.343049] thermal LNXTHERM:05: registered as thermal_zone8
[   17.343050] ACPI: Thermal Zone [PCHZ] (127 C)
[   17.358376] input: ST LIS3LV02DL Accelerometer as /devices/platform/lis3lv02d/input/input20
[   17.359650] ACPI Error: Needed [Buffer/String/Package], found [Integer] ffff88080cd99ab0 (20160422/exresop-593)
[   17.359712] ACPI Exception: AE_AML_OPERAND_TYPE, While resolving operands for [OpcodeName unavailable] (20160422/dswexec-460)
[   17.359746] ACPI Error: Method parse/execution failed [\_SB.WMIV.WVPO] (Node ffff88081089c618), AE_AML_OPERAND_TYPE (20160422/psparse-542)
[   17.360940] ACPI Error: Method parse/execution failed [\_SB.WMIV.WMPV] (Node ffff88081089c668), AE_AML_OPERAND_TYPE (20160422/psparse-542)
[   17.362565] ACPI Error: Needed [Buffer/String/Package], found [Integer] ffff88080cd99318 (20160422/exresop-593)
[   17.363374] ACPI Exception: AE_AML_OPERAND_TYPE, While resolving operands for [OpcodeName unavailable] (20160422/dswexec-460)
[   17.364207] ACPI Error: Method parse/execution failed [\_SB.WMIV.WVPO] (Node ffff88081089c618), AE_AML_OPERAND_TYPE (20160422/psparse-542)
[   17.364873] ACPI Error: Method parse/execution failed [\_SB.WMIV.WMPV] (Node ffff88081089c668), AE_AML_OPERAND_TYPE (20160422/psparse-542)
[   17.366052] ACPI Error: Needed [Buffer/String/Package], found [Integer] ffff88080cd99948 (20160422/exresop-593)
[   17.366720] ACPI Exception: AE_AML_OPERAND_TYPE, While resolving operands for [OpcodeName unavailable] (20160422/dswexec-460)
[   17.367401] ACPI Error: Method parse/execution failed [\_SB.WMIV.WVPO] (Node ffff88081089c618), AE_AML_OPERAND_TYPE (20160422/psparse-542)
[   17.368106] ACPI Error: Method parse/execution failed [\_SB.WMIV.WMPV] (Node ffff88081089c668), AE_AML_OPERAND_TYPE (20160422/psparse-542)
[   17.369423] input: HP WMI hotkeys as /devices/virtual/input/input21
[   17.374308] ACPI Error: Attempt to CreateField of length zero (20160422/dsopcode-168)
[   17.375723] ACPI Error: Method parse/execution failed [\_SB.WMIV.WVPI] (Node ffff88081089c5c8), AE_AML_OPERAND_VALUE (20160422/psparse-542)
[   17.377035] ACPI Error: Method parse/execution failed [\_SB.WMIV.WMPV] (Node ffff88081089c668), AE_AML_OPERAND_VALUE (20160422/psparse-542)
[   17.377077] iTCO_vendor_support: vendor-support=0
[   17.405728] iTCO_wdt: Intel TCO WatchDog Timer Driver v1.11
[   17.405893] iTCO_wdt: Found a Intel PCH TCO device (Version=4, TCOBASE=0x0400)
[   17.405989] iTCO_wdt: initialized. heartbeat=30 sec (nowayout=0)
[   17.442301] input: PS/2 Generic Mouse as /devices/platform/i8042/serio2/input/input17
[   17.787659] Bluetooth: hci0: Waiting for firmware download to complete
[   17.788544] Bluetooth: hci0: Firmware loaded in 1657976 usecs
[   17.788720] Bluetooth: hci0: Waiting for device to boot
[   17.801566] Bluetooth: hci0: Device booted in 12662 usecs
[   17.827143] Bluetooth: hci0: Found Intel DDC parameters: intel/ibt-11-5.ddc
[   17.830678] Bluetooth: hci0: Applying Intel DDC parameters completed
[   17.831623] Bluetooth: hci0: Setting Intel event mask failed (-16)
[   18.180595] psmouse serio3: synaptics: queried max coordinates: x [..5670], y [..4758]
[   18.213844] psmouse serio3: synaptics: queried min coordinates: x [1360..], y [1198..]
[   18.273083] psmouse serio3: synaptics: Touchpad model: 1, fw: 8.2, id: 0x1e2b1, caps: 0xf00123/0x840300/0x2e800/0x0, board id: 3139, fw id: 2000742
[   18.310782] input: SynPS/2 Synaptics TouchPad as /devices/platform/i8042/serio3/input/input22
[   32.380961] mei_wdt mei::05b79a6f-4628-4d7f-899d-a91514cb32ab:02: Could not register event ret=-22
[   32.386170] mei_wdt: probe of mei::05b79a6f-4628-4d7f-899d-a91514cb32ab:02 failed with error -22
[   32.468544] EXT4-fs (dm-0): re-mounted. Opts: data=ordered
[   33.342730] EXT4-fs (dm-0): re-mounted. Opts: data=ordered
[   33.721591] udevd[863]: starting version 3.2
[   33.838984] udevd[863]: starting eudev-3.2
[   34.372959] IPv6: ADDRCONF(NETDEV_UP): eth0: link is not ready
[   34.374775] iwlwifi 0000:02:00.0: L1 Enabled - LTR Enabled
[   34.375178] iwlwifi 0000:02:00.0: L1 Enabled - LTR Enabled
[   34.512212] iwlwifi 0000:02:00.0: L1 Enabled - LTR Enabled
[   34.512620] iwlwifi 0000:02:00.0: L1 Enabled - LTR Enabled
[   34.589896] IPv6: ADDRCONF(NETDEV_UP): wlan0: link is not ready
